###### Progress log entry 2017-08-24 17:37:04 ######
Reinstalling all deployed packages...
###### Progress log entry 2017-08-24 17:37:06 ######
###### Progress log entry 2017-08-24 17:53:38 ######
###### Progress log entry 2017-09-15 11:47:42 ######
Reinstalling all deployed packages...
###### Progress log entry 2017-09-15 11:47:43 ######
###### Progress log entry 2017-10-09 11:30:42 ######
###### Progress log entry 2017-11-16 13:59:14 ######
###### Progress log entry 2017-12-06 18:34:21 ######
###### Progress log entry 2017-12-06 21:16:18 ######
###### Progress log entry 2017-12-14 16:50:50 ######
###### Progress log entry 2018-01-09 12:18:55 ######
###### Progress log entry 2018-01-14 14:37:33 ######
###### Progress log entry 2018-01-16 10:00:06 ######
###### Progress log entry 2018-01-16 10:01:37 ######
###### Progress log entry 2018-01-16 11:57:57 ######
###### Progress log entry 2018-01-16 12:02:25 ######
###### Progress log entry 2018-01-16 12:03:17 ######
###### Progress log entry 2018-01-16 12:04:48 ######
###### Progress log entry 2018-01-16 12:05:36 ######
###### Progress log entry 2018-01-16 12:26:44 ######
###### Progress log entry 2018-01-16 12:32:27 ######
###### Progress log entry 2018-01-16 12:38:41 ######
###### Progress log entry 2018-01-16 12:39:37 ######
###### Progress log entry 2018-01-16 12:39:40 ######
###### Progress log entry 2018-01-16 12:55:41 ######
###### Progress log entry 2018-01-16 15:05:31 ######
###### Progress log entry 2018-01-16 15:38:49 ######
###### Progress log entry 2018-02-20 14:06:42 ######
Reinstalling all deployed packages...
###### Progress log entry 2018-02-20 14:06:43 ######
###### Progress log entry 2018-04-08 17:07:49 ######
###### Progress log entry 2018-04-08 17:13:51 ######
###### Progress log entry 2018-04-08 17:25:41 ######
###### Progress log entry 2018-04-08 17:51:50 ######
###### Progress log entry 2018-04-08 17:58:26 ######
###### Progress log entry 2018-04-08 18:02:28 ######
###### Progress log entry 2018-04-08 18:06:32 ######
###### Progress log entry 2018-04-09 17:30:51 ######
Reinstalling all deployed packages...
###### Progress log entry 2018-04-09 17:30:53 ######
###### Progress log entry 2018-04-10 14:28:04 ######
###### Progress log entry 2018-04-10 14:37:33 ######
###### Progress log entry 2018-05-08 15:43:35 ######
###### Progress log entry 2018-05-09 10:37:09 ######
###### Progress log entry 2018-05-09 13:29:58 ######
###### Progress log entry 2018-05-09 15:20:30 ######
###### Progress log entry 2018-05-16 09:58:49 ######
###### Progress log entry 2018-05-16 09:59:25 ######
###### Progress log entry 2018-05-17 08:57:00 ######
###### Progress log entry 2018-05-18 08:51:14 ######
###### Progress log entry 2018-05-19 13:22:26 ######
###### Progress log entry 2018-05-19 16:14:39 ######
###### Progress log entry 2018-05-19 17:18:16 ######
###### Progress log entry 2018-05-20 13:31:13 ######
###### Progress log entry 2018-05-21 09:27:51 ######
###### Progress log entry 2018-05-22 17:32:32 ######
###### Progress log entry 2018-05-22 17:32:40 ######
###### Progress log entry 2018-05-24 16:32:48 ######
###### Progress log entry 2018-05-24 16:51:11 ######
###### Progress log entry 2018-06-10 17:03:04 ######
###### Progress log entry 2018-06-10 22:52:53 ######
###### Progress log entry 2018-06-11 16:14:14 ######
###### Progress log entry 2018-07-28 16:50:02 ######
###### Progress log entry 2018-09-04 16:46:55 ######
Reinstalling all deployed packages...
###### Progress log entry 2018-09-04 16:47:01 ######
###### Progress log entry 2018-09-10 17:51:19 ######
###### Progress log entry 2018-09-11 16:44:54 ######
###### Progress log entry 2018-10-16 18:31:16 ######
Reinstalling all deployed packages...
###### Progress log entry 2018-10-16 18:31:23 ######
###### Progress log entry 2018-10-17 14:33:31 ######
###### Progress log entry 2018-10-23 15:00:21 ######
###### Progress log entry 2018-10-23 15:48:10 ######
###### Progress log entry 2018-10-30 15:21:10 ######
###### Progress log entry 2018-11-08 16:34:26 ######
Reinstalling all deployed packages...
###### Progress log entry 2018-11-08 16:34:56 ######
###### Progress log entry 2018-11-22 11:04:26 ######
###### Progress log entry 2018-12-04 19:39:42 ######
###### Progress log entry 2019-01-07 11:52:26 ######
###### Progress log entry 2019-01-07 12:39:29 ######
###### Progress log entry 2019-01-16 09:59:42 ######
###### Progress log entry 2019-01-16 10:09:26 ######
###### Progress log entry 2019-01-16 16:14:16 ######
###### Progress log entry 2019-01-21 10:07:09 ######
###### Progress log entry 2019-01-21 13:35:18 ######
###### Progress log entry 2019-01-21 17:21:30 ######
###### Progress log entry 2019-01-21 17:25:09 ######
###### Progress log entry 2019-01-21 19:44:58 ######
###### Progress log entry 2019-01-24 12:10:11 ######
###### Progress log entry 2019-01-27 12:15:28 ######
###### Progress log entry 2019-02-03 19:29:15 ######
###### Progress log entry 2019-02-05 11:03:10 ######
